{
  "totalPages": 3,
  "totalElements": 3,
  "first": true,
  "last": false,
  "size": 1,
  "content": [
    {
      "homeworkId": 3,
      "title": "title",
      "description": "description",
      "deadLine": "2024-08-27 02:13",
      "submitCount": 0
    }
  ],
  "number": 0,
  "sort": {
    "empty": true,
    "unsorted": true,
    "sorted": false
  },
  "pageable": {
    "pageNumber": 0,
    "pageSize": 1,
    "sort": {
      "empty": true,
      "unsorted": true,
      "sorted": false
    },
    "offset": 0,
    "unpaged": false,
    "paged": true
  },
  "numberOfElements": 1,
  "empty": false
}
